dump.vcd
$date
	Thu Feb 13 10:26:03 2025
$end

$version
	Synopsys VCS version W-2024.09-SP1_Full64
$end

$timescale
	1ns
$end

$comment Csum: 1 68aea9c6e265d190 $end


$scope module $unit $end
$upscope $end


$scope module top $end

$scope begin unnamed$$_vcs_3 $end
$upscope $end


$scope begin unnamed$$_vcs_0 $end
$upscope $end


$scope begin unnamed$$_vcs_1 $end
$upscope $end


$scope begin unnamed$$_vcs_2 $end
$upscope $end


$scope module fif $end
$var reg 1 ! clk $end
$var reg 1 " rst_n $end
$var reg 1 # w_en $end
$var reg 1 $ r_en $end
$var reg 8 % data_in [7:0] $end
$var reg 8 & data_out [7:0] $end
$var reg 1 ' full $end
$var reg 1 ( empty $end
$upscope $end


$scope module DUT $end
$var wire 1 ) clk $end
$var wire 1 * rst_n $end
$var wire 1 + w_en $end
$var wire 1 , r_en $end
$var wire 8 - data_in [7:0] $end
$var reg 8 . data_out [7:0] $end
$var wire 1 / full $end
$var wire 1 0 empty $end
$var reg 4 1 w_ptr [3:0] $end
$var reg 4 2 r_ptr [3:0] $end
$var reg 1 3 wrap_around $end
$upscope $end

$upscope $end

$enddefinitions $end

#0
$dumpvars
b00000000 &
bxxxxxxxx %
x3
b00000000 .
b0000 2
b0000 1
bxxxxxxxx -
0!
1(
0'
x$
0"
x#
0)
10
0/
x,
0*
x+
$end
03
#10
1!
1)
1"
1*
#20
0!
0)
1#
1+
0$
0,
b10111010 %
b10111010 -
#30
1!
1)
b0001 1
00
0(
#40
0!
0)
b11011010 %
b11011010 -
#50
1!
1)
b0010 1
#60
0!
0)
b01100011 %
b01100011 -
#70
1!
1)
b0011 1
#80
0!
0)
b11101101 %
b11101101 -
#90
1!
1)
b0100 1
#100
0!
0)
b10011011 %
b10011011 -
#110
1!
1)
b0101 1
#120
0!
0)
0#
0+
1$
1,
#130
1!
1)
b10111010 .
b10111010 &
b0001 2
#140
0!
0)
#150
1!
1)
b11011010 .
b11011010 &
b0010 2
#160
0!
0)
#170
1!
1)
b01100011 .
b01100011 &
b0011 2
#180
0!
0)
#190
1!
1)
b11101101 .
b11101101 &
b0100 2
#200
0!
0)
#210
1!
1)
b10011011 .
b10011011 &
b0101 2
10
1(
#220
0!
0)
#230
1!
1)
#240
0!
0)
0"
0*
b0000 1
b0000 2
b00000000 .
b00000000 &
#250
1!
1)
1"
1*
#260
0!
0)
1#
1+
0$
0,
b00001011 %
b00001011 -
#270
1!
1)
b0001 1
00
0(
#280
0!
0)
b00011001 %
b00011001 -
#290
1!
1)
b0010 1
#300
0!
0)
b00001001 %
b00001001 -
#310
1!
1)
b0011 1
#320
0!
0)
b00000010 %
b00000010 -
#330
1!
1)
b0100 1
#340
0!
0)
b00000110 %
b00000110 -
#350
1!
1)
b0101 1
#360
0!
0)
b00000001 %
b00000001 -
#370
1!
1)
b0110 1
#380
0!
0)
b00000000 %
b00000000 -
#390
1!
1)
b0111 1
#400
0!
0)
b00010100 %
b00010100 -
#410
1!
1)
b1000 1
13
1/
1'
#420
0!
0)
#430
1!
1)
#440
0!
0)
0"
0*
b0000 1
03
10
1(
0/
0'
#450
1!
1)
1"
1*
b0001 1
00
0(
b0000 1
10
1(
#460
0!
0)
b10100011 %
b10100011 -
#470
1!
1)
b0001 1
00
0(
#480
0!
0)
b00010111 %
b00010111 -
#490
1!
1)
b0010 1
#500
0!
0)
b00000011 %
b00000011 -
#510
1!
1)
b0011 1
#520
0!
0)
b11001001 %
b11001001 -
#530
1!
1)
b0100 1
#540
0!
0)
b00101010 %
b00101010 -
#550
1!
1)
b0101 1
#560
0!
0)
b01110100 %
b01110100 -
#570
1!
1)
b0110 1
#580
0!
0)
b11111110 %
b11111110 -
#590
1!
1)
b0111 1
#600
0!
0)
b11111111 %
b11111111 -
#610
1!
1)
b1000 1
13
1/
1'
#620
0!
0)
b01001101 %
b01001101 -
#630
1!
1)
#640
0!
0)
0#
0+
1$
1,
#650
1!
1)
b10100011 .
b10100011 &
b0001 2
0/
0'
#660
0!
0)
#670
1!
1)
b00010111 .
b00010111 &
b0010 2
#680
0!
0)
#690
1!
1)
b00000011 .
b00000011 &
b0011 2
#700
0!
0)
#710
1!
1)
b11001001 .
b11001001 &
b0100 2
#720
0!
0)
#730
1!
1)
b00101010 .
b00101010 &
b0101 2
#740
0!
0)
#750
1!
1)
b01110100 .
b01110100 &
b0110 2
#760
0!
0)
#770
1!
1)
b11111110 .
b11111110 &
b0111 2
#780
0!
0)
#790
1!
1)
b11111111 .
b11111111 &
b1000 2
03
10
1(
#800
0!
0)
#810
1!
1)
#820
0!
0)
0"
0*
b0000 1
b0000 2
b00000000 .
b00000000 &
#830
1!
1)
1"
1*
#840
0!
0)
1#
1+
0$
0,
b10001011 %
b10001011 -
#850
1!
1)
b0001 1
00
0(
#860
0!
0)
b00001101 %
b00001101 -
#870
1!
1)
b0010 1
#880
0!
0)
b11000000 %
b11000000 -
#890
1!
1)
b0011 1
#900
0!
0)
b01101100 %
b01101100 -
#910
1!
1)
b0100 1
#920
0!
0)
b00000110 %
b00000110 -
#930
1!
1)
b0101 1
#940
0!
0)
b01110110 %
b01110110 -
#950
1!
1)
b0110 1
#960
0!
0)
b01101101 %
b01101101 -
#970
1!
1)
b0111 1
#980
0!
0)
b01110000 %
b01110000 -
#990
1!
1)
b1000 1
13
1/
1'
#1000
0!
0)
0#
0+
1$
1,
#1010
1!
1)
b10001011 .
b10001011 &
b0001 2
0/
0'
#1020
0!
0)
#1030
1!
1)
b00001101 .
b00001101 &
b0010 2
#1040
0!
0)
0"
0*
b0000 1
03
10
1(
b0000 2
b00000000 .
b00000000 &
#1050
1!
1)
1"
1*
#1060
0!
0)
1#
1+
0$
0,
b01011111 %
b01011111 -
#1070
1!
1)
b0001 1
00
0(
#1080
0!
0)
b00110001 %
b00110001 -
#1090
1!
1)
b0010 1
#1100
0!
0)
b10000001 %
b10000001 -
#1110
1!
1)
b0011 1
#1120
0!
0)
b01101000 %
b01101000 -
#1130
1!
1)
b0100 1
#1140
0!
0)
b01100100 %
b01100100 -
#1150
1!
1)
b0101 1
#1160
0!
0)
1$
1,
b01011011 %
b01011011 -
#1170
1!
1)
b0110 1
b01011111 .
b01011111 &
b0001 2
#1180
0!
0)
b01100101 %
b01100101 -
#1190
1!
1)
b0111 1
b00110001 .
b00110001 &
b0010 2
#1200
0!
0)
b01101110 %
b01101110 -
#1210
1!
1)
b1000 1
13
b10000001 .
b10000001 &
b0011 2
#1220
0!
0)
b00001000 %
b00001000 -
#1230
1!
1)
b1001 1
b01101000 .
b01101000 &
b0100 2
#1240
0!
0)
b00010110 %
b00010110 -
#1250
1!
1)
b1010 1
b01100100 .
b01100100 &
b0101 2
#1260
0!
0)
#1270
1!
1)
b1011 1
b01011011 .
b01011011 &
b0110 2
